digraph "CFG for 'main' function" {
	label="CFG for 'main' function";

	Node0x934d20 [shape=record,label="{%0:\l  %1 = alloca i32, align 4\l  %a = alloca i32, align 4\l  %b = alloca i32, align 4\l  %c = alloca i32, align 4\l  %d = alloca i32, align 4\l  store i32 0, i32* %1\l  store i32 2, i32* %a, align 4\l  store i32 0, i32* %b, align 4\l  store i32 0, i32* %c, align 4\l  store i32 2, i32* %d, align 4\l  br label %2\l}"];
	Node0x934d20 -> Node0x935d40;
	Node0x935d40 [shape=record,label="{%2:\l\l  %3 = load i32, i32* %d, align 4\l  %4 = icmp sgt i32 %3, 0\l  br i1 %4, label %5, label %8\l|{<s0>T|<s1>F}}"];
	Node0x935d40:s0 -> Node0x9351a0;
	Node0x935d40:s1 -> Node0x9351f0;
	Node0x9351a0 [shape=record,label="{%5:\l\l  %6 = load i32, i32* %a, align 4\l  %7 = srem i32 %6, 12\l  store i32 %7, i32* %d, align 4\l  br label %2\l}"];
	Node0x9351a0 -> Node0x935d40;
	Node0x9351f0 [shape=record,label="{%8:\l\l  %9 = load i32, i32* %1\l  ret i32 %9\l}"];
}
