fixed point not reachedfixed point not reachedFixed point is reached: Printing the separation between the variables --->
sep(a, b) = 2
sep(a, c) = 2
sep(a, d) = 11
sep(b, c) = 0
sep(b, d) = 11
sep(c, d) = 11
