; ModuleID = 'example6.c'
target datalayout = "e-m:e-i64:64-f80:128-n8:16:32:64-S128"
target triple = "x86_64-pc-linux-gnu"

; Function Attrs: nounwind uwtable
define i32 @main() #0 {
  %a = alloca i32, align 4
  %b = alloca i32, align 4
  %c = alloca i32, align 4
  %d = alloca i32, align 4
  store i32 0, i32* %a, align 4
  store i32 0, i32* %b, align 4
  store i32 0, i32* %c, align 4
  store i32 2, i32* %d, align 4
  store i32 5, i32* %d, align 4
  %1 = load i32* %d, align 4
  %2 = load i32* %d, align 4
  %3 = mul nsw i32 %1, %2
  store i32 %3, i32* %d, align 4
  %4 = load i32* %d, align 4
  %5 = srem i32 %4, 10
  store i32 %5, i32* %d, align 4
  ret i32 0
}

attributes #0 = { nounwind uwtable "less-precise-fpmad"="false" "no-frame-pointer-elim"="true" "no-frame-pointer-elim-non-leaf" "no-infs-fp-math"="false" "no-nans-fp-math"="false" "stack-protector-buffer-size"="8" "unsafe-fp-math"="false" "use-soft-float"="false" }

!llvm.ident = !{!0}

!0 = metadata !{metadata !"Ubuntu clang version 3.5.2-3ubuntu1 (tags/RELEASE_352/final) (based on LLVM 3.5.2)"}
